
Homework 5 Poker

Total Score: 96

Compiles       20 pts

20

Comments    10 pts

6 (-4 No header)

Checks for Integer     10 pts

10

Checks for duplicates   10 pts

10

Program works             50 pts

50

Use of arrays 		-20 pts

Uses integer division 	-10 
